{
  "version": 12,
  "info": "[3.4 MB]\n1. 拍卖新增送我绝对音感\n2. 拍卖新增任务排名\n3. 拍卖新增在线玩家\n4. 拍卖新增活跃玩家",
  "url": "https://gitea.com/ColaMint/HeavenMS-ChangeLog/raw/branch/main/server/12.zip",
  "code": "",
  "parser": "direct"
}
